"filename", "language", "JSON", "JSON with Comments", "TypeScript JSX", "TypeScript", "JavaScript", "Markdown", "comment", "blank", "total"
"/home/nova/Documents/lasty-mobile/App.tsx", "TypeScript JSX", 0, 0, 16, 0, 0, 0, 1, 4, 21
"/home/nova/Documents/lasty-mobile/README.md", "Markdown", 0, 0, 0, 0, 0, 0, 0, 1, 1
"/home/nova/Documents/lasty-mobile/UIcomponents/Typography/Typography.tsx", "TypeScript JSX", 0, 0, 27, 0, 0, 0, 0, 6, 33
"/home/nova/Documents/lasty-mobile/UIcomponents/index.ts", "TypeScript", 0, 0, 0, 2, 0, 0, 0, 2, 4
"/home/nova/Documents/lasty-mobile/app.json", "JSON", 12, 0, 0, 0, 0, 0, 0, 1, 13
"/home/nova/Documents/lasty-mobile/babel.config.js", "JavaScript", 0, 0, 0, 0, 6, 0, 0, 1, 7
"/home/nova/Documents/lasty-mobile/navigation/MainNativeStack/MainNativeStack.tsx", "TypeScript JSX", 0, 0, 43, 0, 0, 0, 2, 6, 51
"/home/nova/Documents/lasty-mobile/package-lock.json", "JSON", 20887, 0, 0, 0, 0, 0, 0, 1, 20888
"/home/nova/Documents/lasty-mobile/package.json", "JSON", 32, 0, 0, 0, 0, 0, 0, 1, 33
"/home/nova/Documents/lasty-mobile/screens/Home/Header.tsx", "TypeScript JSX", 0, 0, 71, 0, 0, 0, 3, 5, 79
"/home/nova/Documents/lasty-mobile/screens/Home/Home.tsx", "TypeScript JSX", 0, 0, 22, 0, 0, 0, 1, 4, 27
"/home/nova/Documents/lasty-mobile/screens/Home/PinnedNote.tsx", "TypeScript JSX", 0, 0, 16, 0, 0, 0, 1, 5, 22
"/home/nova/Documents/lasty-mobile/screens/Home/PinnedNoteSection.tsx", "TypeScript JSX", 0, 0, 31, 0, 0, 0, 2, 4, 37
"/home/nova/Documents/lasty-mobile/screens/Home/RecentNote.tsx", "TypeScript JSX", 0, 0, 16, 0, 0, 0, 1, 5, 22
"/home/nova/Documents/lasty-mobile/screens/Home/RecentNotesSection.tsx", "TypeScript JSX", 0, 0, 27, 0, 0, 0, 1, 4, 32
"/home/nova/Documents/lasty-mobile/screens/OTP_flow/EnterEmailScreen/EnterEmailScreen.tsx", "TypeScript JSX", 0, 0, 21, 0, 0, 0, 2, 6, 29
"/home/nova/Documents/lasty-mobile/screens/OTP_flow/EnterEmailScreen/FormSection.tsx", "TypeScript JSX", 0, 0, 38, 0, 0, 0, 1, 4, 43
"/home/nova/Documents/lasty-mobile/screens/OTP_flow/EnterEmailScreen/IllustrationSection.tsx", "TypeScript JSX", 0, 0, 22, 0, 0, 0, 0, 4, 26
"/home/nova/Documents/lasty-mobile/screens/OTP_flow/EnterEmailScreen/TextSection.tsx", "TypeScript JSX", 0, 0, 31, 0, 0, 0, 1, 4, 36
"/home/nova/Documents/lasty-mobile/screens/OTP_flow/EnterEmailScreen/TopSection.tsx", "TypeScript JSX", 0, 0, 64, 0, 0, 0, 3, 6, 73
"/home/nova/Documents/lasty-mobile/screens/OTP_flow/OTPVerificationScreen/FormSection.tsx", "TypeScript JSX", 0, 0, 61, 0, 0, 0, 2, 7, 70
"/home/nova/Documents/lasty-mobile/screens/OTP_flow/OTPVerificationScreen/IllustrationSection.tsx", "TypeScript JSX", 0, 0, 22, 0, 0, 0, 0, 4, 26
"/home/nova/Documents/lasty-mobile/screens/OTP_flow/OTPVerificationScreen/OTPVerificationScreen.tsx", "TypeScript JSX", 0, 0, 26, 0, 0, 0, 1, 6, 33
"/home/nova/Documents/lasty-mobile/screens/OTP_flow/OTPVerificationScreen/TextSection.tsx", "TypeScript JSX", 0, 0, 31, 0, 0, 0, 1, 5, 37
"/home/nova/Documents/lasty-mobile/screens/OTP_flow/OTPVerificationScreen/TopSection.tsx", "TypeScript JSX", 0, 0, 67, 0, 0, 0, 3, 6, 76
"/home/nova/Documents/lasty-mobile/screens/OTP_flow/OTPVerificationScreen/hooks/userFormSection.ts", "TypeScript", 0, 0, 0, 42, 0, 0, 0, 6, 48
"/home/nova/Documents/lasty-mobile/screens/RegisterScreen/ChooseUsernameAndPfp.tsx", "TypeScript JSX", 0, 0, 79, 0, 0, 0, 2, 6, 87
"/home/nova/Documents/lasty-mobile/screens/RegisterScreen/TopSection.tsx", "TypeScript JSX", 0, 0, 33, 0, 0, 0, 1, 4, 38
"/home/nova/Documents/lasty-mobile/screens/RegisterScreen/index.tsx", "TypeScript JSX", 0, 0, 23, 0, 0, 0, 1, 5, 29
"/home/nova/Documents/lasty-mobile/theme/colors.ts", "TypeScript", 0, 0, 0, 7, 0, 0, 0, 1, 8
"/home/nova/Documents/lasty-mobile/tsconfig.json", "JSON with Comments", 0, 22, 0, 0, 0, 0, 0, 2, 24
"/home/nova/Documents/lasty-mobile/types/NavigationTypes/MainNativeStackTypes.ts", "TypeScript", 0, 0, 0, 6, 0, 0, 0, 1, 7
"/home/nova/Documents/lasty-mobile/utils/loadFonts.tsx", "TypeScript JSX", 0, 0, 0, 0, 0, 0, 0, 1, 1
"/home/nova/Documents/lasty-mobile/utils/navigationNames.ts", "TypeScript", 0, 0, 0, 5, 0, 0, 0, 1, 6
"/home/nova/Documents/lasty-mobile/utils/text/OTP_flow_text.ts", "TypeScript", 0, 0, 0, 5, 0, 0, 0, 1, 6
"/home/nova/Documents/lasty-mobile/utils/text/Register/formSection.text.ts", "TypeScript", 0, 0, 0, 4, 0, 0, 0, 1, 5
"/home/nova/Documents/lasty-mobile/utils/text/Register/register.text.ts", "TypeScript", 0, 0, 0, 6, 0, 0, 0, 1, 7
"Total", "-", 20931, 22, 787, 77, 6, 0, 30, 132, 21985