Date : 2023-07-27 14:13:18
Directory : /home/nova/Documents/lasty-mobile
Total : 0 files,  0 codes, 0 comments, 0 blanks, all 0 lines

Languages
+----------+------------+------------+------------+------------+------------+
| language | files      | code       | comment    | blank      | total      |
+----------+------------+------------+------------+------------+------------+
+----------+------------+------------+------------+------------+------------+

Directories
+------+------------+------------+------------+------------+------------+
| path | files      | code       | comment    | blank      | total      |
+------+------------+------------+------------+------------+------------+
+------+------------+------------+------------+------------+------------+

Files
+----------+----------+------------+------------+------------+------------+
| filename | language | code       | comment    | blank      | total      |
+----------+----------+------------+------------+------------+------------+
| Total    |          |          0 |          0 |          0 |          0 |
+----------+----------+------------+------------+------------+------------+